6.1.0
af_ZA	5da2ac9aa64ed861221a3a4c7343fb1e	1
ar	768fdce66396bf0c2123eac99ba09f86	1
az_AZ	bc5dc6e5c4430651a90fde2c8dd628f4	1
be_BY	3957fbb2508c8eed79e983db65761efb	1
bg_BG	be2d9430f1603db218508bb136694e0d	1
ca_ES	585b5de88528467a7e52d4d32e2e57af	1
cs_CZ	897a7179815e7da3fa34e41b370181e0	1
da_DK	078a95c837c019bb5618acf374cc6d06	1
de_AT	b5bccb7e4859945d6096d3257ff84a98	1
de_DE	497675237d891637272382caa0f315c4	1
el_GR	ff04d6cdd23b465618d6c52461a45a63	1
en_AU	95c44940569bb47abbb928eaeadf8343	1
en_CA	5fb79cab3f22e8ba33de710b4238fb7b	1
en_GB	06cce8eb6f4f886ee0c35bb07e05228d	1
en_US	ab69a98598a132da170a6e19022c5a30	1
es_ES	954e816488b52020a354ab08ad6d5459	1
es_MX	a7eb49666c5cff74f2f5a33e65a62dfc	1
es_US	a9c488edf02dfb4076990f5cfb41bb76	1
et_EE	40c3130c9f01695ab59384f9159d1b55	1
eu_ES	570713a772b75284e7941282ac57633c	1
fa_IR	8ff344d04bddc659883e8dbdfe855f98	1
fi_FI	50eabebcdc6326f308b426b77c860792	1
fr_CA	1547ad556f3149652af745193f75eb5f	1
fr_FR	d36a06b5c332031f339e23c3f19f7c63	1
ga_IE	92134760686f4d5eb4ca0bc7f5dca80a	1
gl_ES	de02f84ab21d2791189cf1d68fec73b6	1
he_IL	1bdb164f5937564afc66a200ef9c0a03	1
hi_IN	4e094b287b0841de1cda70d4a8fe7f1c	1
hr_HR	6e0ac6f37eb38761b57434050871e855	1
hu_HU	63fa2f67eb604f9d7e1478f6bb19edc2	1
hy_AM	37924e12124a14d159beca988bff441b	1
id_ID	e1c477298403400f27e278f4f7a18496	1
is_IS	f697430c0ec63e450f574e2cc41d2810	1
it_IT	99eb7f78d7102eaa598fd32d08280532	1
ja_JP	6e45acb663d5a992cdb5993bd4b43ac6	1
ka_GE	ee38ba673d8d4eedb27864edcd6c1a87	1
kk_KZ	a8556082a75b175217a7cbf2546cbe0f	1
ko_KR	8bccef73f5e0af592c458b73a7db0622	1
lt_LT	11edec6c0055e7ed1861c9084aead1eb	1
lv_LV	f126bcc29a72f3ca7c71241ee50ee334	1
mk_MK	e768b999970b5f9f2ce70da4a766ac44	1
mn_MN	5d19ad7d9379bb9559481d06b2822f43	1
mr_IN	354438380fa427198dc66dc483fcf007	1
ms_MY	9761e7f23c3a04fd20496d931fab52a7	1
nb_NO	07a6a97bae3a66e784e7ad76ba4067c1	1
nl_BE	d3c9c29cc5748bee165be44eef08497d	1
nl_NL	7dd6edb912efd1eeeb91589b6a1d30ac	1
pl_PL	9bee52e3e7ea615dbdfb1c10d2ca3e5f	1
pt_BR	7082c51d252ae6d95123b8a849a481f7	1
pt_PT	2512c6489086240f615653c608404cae	1
ro_RO	85477a098f079de986eccdf2093a6007	1
ru_RU	a7e5e21c4c7ea4838e167197ff39a455	1
sk_SK	503e27ad0aa8c7a30cf44485de4d6ea0	1
sl_SI	1ead563f51a6eee9170cacc19a55b21b	1
sq_AL	5bfd932d80b49671abf8c7e4668a3f5f	1
sr_RS	0b5dda5ac07bb83b7324a9386a8e59d3	1
sv_SE	4f6f668b0cc44fe0b7526f4001daf36c	1
th_TH	d2c0d186ae62f8b6be574dcd5460b7d3	1
tr_TR	bbd227547c9ddb0acfbb57e219899f94	1
uk_UA	b7a9b120d49221d1fd7500281a3ee37b	1
ur_PK	726da4e14a4db54ab6709ad8d5419727	1
vi_VN	f5418c3b15d97897e49a7b35c8c28234	1
zh_CN	932410f06a7cf594fff16eb29915573c	1
zh_HK	40bb51bede0e143ef593138d06ebf149	1
zh_TW	ee5cd9628cb14332435607948850dcc1	1
